{
  "name": "inventory-connector",
  "config": {
    "connector.class": "io.debezium.connector.oracle.OracleConnector",
    "tasks.max": "1",
    "database.server.name": "oracledb19",
    "database.hostname": "192.168.1.208",
    "database.port": "1521",
    "database.user": "c##dbzuser",
    "database.password": "dbz",
    "database.dbname": "ORCLCDB",
    "database.pdb.name": "ORCLPDB1",
    "database.oracle.version": "19",
    "database.connection.adapter": "logminer",
    "database.history.kafka.bootstrap.servers": "kafka:9092",
    "database.history.kafka.topic": "schema-changes.inventory"
  }
}
